^C:\EPIC GAMES\C++\SUPERPROJECT\SUPERPROJECT\MAIN.CPP|C:\EPIC GAMES\C++\SUPERPROJECT\SUPERPROJECT\MATH.CPP
C:\EPIC GAMES\C++\SUPERPROJECT\SUPERPROJECT\DEBUG\VC142.PDB
C:\EPIC GAMES\C++\SUPERPROJECT\SUPERPROJECT\DEBUG\VC142.IDB
C:\EPIC GAMES\C++\SUPERPROJECT\SUPERPROJECT\DEBUG\MATH.OBJ
^C:\EPIC GAMES\C++\SUPERPROJECT\SUPERPROJECT\MATH.CPP
C:\EPIC GAMES\C++\SUPERPROJECT\SUPERPROJECT\DEBUG\MATH.OBJ
^C:\EPIC GAMES\C++\SUPERPROJECT\SUPERPROJECT\MAIN.CPP
C:\EPIC GAMES\C++\SUPERPROJECT\SUPERPROJECT\DEBUG\VC142.PDB
C:\EPIC GAMES\C++\SUPERPROJECT\SUPERPROJECT\DEBUG\VC142.IDB
C:\EPIC GAMES\C++\SUPERPROJECT\SUPERPROJECT\DEBUG\MAIN.OBJ
